Title,Class,Order,Level,Scale,Image,Quantity,Spark,Cost,Power,OnSlot,OnUse,Reaction,ReactionAction,Special,SpecialAction,Description,Trigger,TriggerAction,Print,Public,id,Speed,Tactics,,,,,,,,,,,,,,,,,,,,,,,,,,,d,d,,,d,d,,,,,https://i0.wp.com/www.atlaslisboa.com/wp-content/uploads/2017/05/wolf-trap-icon-10.png,https://i0.wp.com/www.atlaslisboa.com/wp-content/uploads/2017/05/wolf-trap-icon-10.png,,,S,S,,
Bear Trap,Dreya,1,S,0,https://i0.wp.com/www.atlaslisboa.com/wp-content/uploads/2017/05/wolf-trap-icon-10.png,1,1,P,2,"Summon a Trap in an empty hex ▲ spaces away 
<br/>
^SparkOne^= Do this again",,,,While Slotted,Ignore all Traps,,,,YES,YES,dre3,0,0,,,,,,,,,,,,,,,,,,,,,,,,,,,d,d,,,d,d,,,,,https://i0.wp.com/www.atlaslisboa.com/wp-content/uploads/2017/05/wolf-trap-icon-10.png,https://i0.wp.com/www.atlaslisboa.com/wp-content/uploads/2017/05/wolf-trap-icon-10.png,,,S,S,,
Fleet Fox,Dreya,2,S,20,https://thumbs.dreamstime.com/b/simple-running-fox-silhouette-design-vector-color-as-you-wish-127848189.jpg,1,1,S,1,^Move^Move 0-2,"^Move^Move 1 
<br/> ^SparkOne^= ^Move^Move 1-2",,,,,,,,YES,YES,dre4,0,0,,,,,,,,,,,,,,,,,,,,,,,,,,,d,d,,,d,d,,,,,https://i0.wp.com/www.atlaslisboa.com/wp-content/uploads/2017/05/wolf-trap-icon-10.png,https://i0.wp.com/www.atlaslisboa.com/wp-content/uploads/2017/05/wolf-trap-icon-10.png,,,S,S,,
Hunter's Mark,Dreya,3,S,15,https://photos.smugmug.com/Interstellar-Fight-Club-IFC/Dreya/i-sKWJJn6/0/3c1ad4a5/O/download%20%2811%29.png,1,1,T,1,(^Range^Range ▲): ^Wound^Wound an Enemy only if they have the least ^Wound^Wound of all Enemies on the map,,If you deal ^d^ Damage to any Enemy with ^Wound^Wound,^Reclaim^Reclaim this card and Gain ^Spark^,,,,,,YES,YES,dre5,0,0,,,,,,,,,,,,,,,,,,,,,,,,,,,d,d,,,d,d,,,,,https://i0.wp.com/www.atlaslisboa.com/wp-content/uploads/2017/05/wolf-trap-icon-10.png,https://i0.wp.com/www.atlaslisboa.com/wp-content/uploads/2017/05/wolf-trap-icon-10.png,,,S,S,,
Master of Terrain,Dreya,4,S,0,https://photos.smugmug.com/Interstellar-Fight-Club-IFC/Dreya/i-dHFrLvS/0/bdb0058e/O/dreya_masterofterrain.png,1,2,1,1,"^Jump^Jump 2
<br/>If you jumped onto or directly over a Platform, Gain ^Spark^","^Jump^Jump 2
<br/>If you jumped onto or directly over a Platform, Gain ^b4^Block",,,,,,,,YES,YES,dre22,0,0,,,,,,,,,,,,,,,,,,,,,,,,,,,d,d,,,d,d,,,,,https://i0.wp.com/www.atlaslisboa.com/wp-content/uploads/2017/05/wolf-trap-icon-10.png,https://i0.wp.com/www.atlaslisboa.com/wp-content/uploads/2017/05/wolf-trap-icon-10.png,,,S,S,,
Bouncing Arrow,Dreya,5,S,20,https://www.customerparadigm.com/wp-content/uploads/2019/11/bounce-icon.png,1,1,P,1,,"(Range ▲): Deal ^d3^ Damage
<br/>
<br/>On ^Hit^Hit:<br/>(Range^Range^ ▲): Deal ^d3^ Damage starting from the first ^Hit^Hit Target",,,,,,,,YES,YES,dre9,0,0,,,,,,,,,,,,,,,,,,,,,,,,,,,d,d,,,d,d,,,,,https://i0.wp.com/www.atlaslisboa.com/wp-content/uploads/2017/05/wolf-trap-icon-10.png,https://i0.wp.com/www.atlaslisboa.com/wp-content/uploads/2017/05/wolf-trap-icon-10.png,,,S,S,,
Scout Job,Dreya,6,,0,https://photos.smugmug.com/Interstellar-Fight-Club-IFC/Dreya/i-rXjggkk/0/8a49e97e/O/download%20%2832%29.png,1,1,1,2,,"Pick any space that is within 4 spaces from every Player 
<br/><br/>All Players may ^Move^Move up to (2+^SparkX^) towards that space",,,,,,,,YES,YES,dre17,0,0,,,,,,,,,,,,,,,,,,,,,,,,,,,d,d,,,d,d,,,,,https://i0.wp.com/www.atlaslisboa.com/wp-content/uploads/2017/05/wolf-trap-icon-10.png,https://i0.wp.com/www.atlaslisboa.com/wp-content/uploads/2017/05/wolf-trap-icon-10.png,,,S,S,,
Boxing Glove Arrow,Dreya,7,,20,https://photos.smugmug.com/Interstellar-Fight-Club-IFC/Dreya/i-hmGkJHh/0/44231842/O/IFC%20%28Block%29.png,1,1,P,1,,"^SparkOne^ = ^Move^Move 1-2 <br/><br/>
(^Line^Line ▲): ^PushLine^Push the Target in a Line until they are 5 spaces away, dealing ^d2^ for each space you ^PushLine^Pushed them",,,,,,,,YES,YES,dre10,0,0,,,,,,,,,,,,,,,,,,,,,,,,,,,d,d,,,d,d,,,,,https://i0.wp.com/www.atlaslisboa.com/wp-content/uploads/2017/05/wolf-trap-icon-10.png,https://i0.wp.com/www.atlaslisboa.com/wp-content/uploads/2017/05/wolf-trap-icon-10.png,,,S,S,,
Bola Arrow,Dreya,8,,10,,1,1,S,1,,"<img src=""https://imagedelivery.net/yn0FeX4Pftgdx0G5XU_y6A/dreya_bolaarrowAOE/public"" width=""400"" height=""400""><br/><br/>
Deal ^d1^ Damage and ^Pin^Pin all Targets
<br/>
<br/>^SparkOne^=^Push^Push 1 to all Targets in a ^Line^Line from the targeted space",,,,,,,,YES,YES,dre12,0,0,,,,,,,,,,,,,,,,,,,,,,,,,,,d,d,,,d,d,,,,,https://i0.wp.com/www.atlaslisboa.com/wp-content/uploads/2017/05/wolf-trap-icon-10.png,https://i0.wp.com/www.atlaslisboa.com/wp-content/uploads/2017/05/wolf-trap-icon-10.png,,,S,S,,
Moonlight,Dreya,9,,0,https://imagedelivery.net/yn0FeX4Pftgdx0G5XU_y6A/dreya_moonlight/public,1,1,T,1,(Range^Range^▲): Choose any Unit to Gain ^bX^Block equal to their distance from you,"An Ally may lose up to 
<br/>^b3^ of their Block
<br/>
<br/>Gain twice as much ^b^Block",,,,,,,,YES,YES,dre8,0,0,,,,,,,,,,,,,,,,,,,,,,,,,,,d,d,,,d,d,,,,,https://i0.wp.com/www.atlaslisboa.com/wp-content/uploads/2017/05/wolf-trap-icon-10.png,https://i0.wp.com/www.atlaslisboa.com/wp-content/uploads/2017/05/wolf-trap-icon-10.png,,,S,S,,
Right On Track,Dreya,10,,0,https://imagedelivery.net/yn0FeX4Pftgdx0G5XU_y6A/dreya_rightontrack/public,1,1,S,1,^Jump^Jump exactly ▲ spaces and land adjacent to an Enemy,^Move^Move exactly ▲ spaces,,,,,,,,YES,YES,dre13,0,0,,,,,,,,,,,,,,,,,,,,,,,,,,,d,d,,,d,d,,,,,https://i0.wp.com/www.atlaslisboa.com/wp-content/uploads/2017/05/wolf-trap-icon-10.png,https://i0.wp.com/www.atlaslisboa.com/wp-content/uploads/2017/05/wolf-trap-icon-10.png,,,S,S,,
Landslide,Dreya,11,,0,https://imagedelivery.net/yn0FeX4Pftgdx0G5XU_y6A/dreya_mudslide1/public,1,1,S,2,,"<img src=""https://imagedelivery.net/yn0FeX4Pftgdx0G5XU_y6A/dreya_mudslide/public"" width=""400"" height=""400"">
<br/>For each ^Line^Line shown, 
<br/>^PushLine^Push 0, 1, or 2 to all Units in that Line (including yourself)",,,,,,,,YES,YES,dre14,0,0,,,,,,,,,,,,,,,,,,,,,,,,,,,d,d,,,d,d,,,,,https://i0.wp.com/www.atlaslisboa.com/wp-content/uploads/2017/05/wolf-trap-icon-10.png,https://i0.wp.com/www.atlaslisboa.com/wp-content/uploads/2017/05/wolf-trap-icon-10.png,,,S,S,,
Tripwire,Dreya,12,,0,https://photos.smugmug.com/Interstellar-Fight-Club-IFC/Dreya/i-55Rj2C6/0/cd823650/O/download%20%2831%29.png,1,1,1,2,,"Target an Platform or Ally within ^RangeLine^4 spaces in a Line
<br/>
<br/>Deal ^d2^ and ^Pin^Pin to all Targets along the line of your path
<br/>
<br/>^SparkOne^= Double the range of this ability",,,,,,,,YES,YES,dre16,0,0,,,,,,,,,,,,,,,,,,,,,,,,,,,d,d,,,d,d,,,,,https://i0.wp.com/www.atlaslisboa.com/wp-content/uploads/2017/05/wolf-trap-icon-10.png,https://i0.wp.com/www.atlaslisboa.com/wp-content/uploads/2017/05/wolf-trap-icon-10.png,,,S,S,,
Called Shot,Dreya,13,,20,https://photos.smugmug.com/Interstellar-Fight-Club-IFC/Dreya/i-9FLvXX3/0/175ad76f/O/download%20%2833%29.png,0,0,1,1,Gain ^Spark^ ^Spark^ and lock your ▲ Range for the rest of the round (nothing can change it),"^SparkOne^ = ^Draw^Draw 1
<br/>^SparkOne^ = ^Draw^Draw 1",,,,,,,,YES,YES,dre18,0,0,,,,,,,,,,,,,,,,,,,,,,,,,,,d,d,,,d,d,,,,,https://i0.wp.com/www.atlaslisboa.com/wp-content/uploads/2017/05/wolf-trap-icon-10.png,https://i0.wp.com/www.atlaslisboa.com/wp-content/uploads/2017/05/wolf-trap-icon-10.png,,,S,S,,
Jagged Tip,Dreya,14,,0,https://img.freepik.com/premium-vector/spear-logo-icon-vector-image_665655-6288.jpg?w=2000,1,1,1,1,^Draw^Draw 1,"On the ^Next^Next card you Use this Round, choose: 
<br/>
<br/>^Pierce^Pierce on all Damage Values 
<br/>OR 
<br/>Add ^d+2^ to all Damage Values",,,,,,,,YES,YES,dre19,0,0,,,,,,,,,,,,,,,,,,,,,,,,,,,d,d,,,d,d,,,,,https://i0.wp.com/www.atlaslisboa.com/wp-content/uploads/2017/05/wolf-trap-icon-10.png,https://i0.wp.com/www.atlaslisboa.com/wp-content/uploads/2017/05/wolf-trap-icon-10.png,,,S,S,,
Poison Tip,Dreya,15,,0,https://wiki.melvoridle.com/images/thumb/3/3d/Poison_Arrows_%28item%29.png/250px-Poison_Arrows_%28item%29.png,1,1,1,1,^Draw^Draw 1,The ^Next^Next card you Use will swap its final ^d^ Damage values for ^p^ Poison values,,,,,,,,YES,YES,dre20,0,0,,,,,,,,,,,,,,,,,,,,,,,,,,,d,d,,,d,d,,,,,https://i0.wp.com/www.atlaslisboa.com/wp-content/uploads/2017/05/wolf-trap-icon-10.png,https://i0.wp.com/www.atlaslisboa.com/wp-content/uploads/2017/05/wolf-trap-icon-10.png,,,S,S,,
Volley Arrow,Dreya,16,,20,,1,1,1,1,,"<img src=""https://imagedelivery.net/yn0FeX4Pftgdx0G5XU_y6A/dreya_volleyarrow/public"" width=""400"" height=""400""> 
<br/>^SparkOne^= Add ^d+1^ Damage
<br/>^SparkOne^= Repeat this entire attack",,,,,,,,YES,YES,dre21,0,0,,,,,,,,,,,,,,,,,,,,,,,,,,,d,d,,,d,d,,,,,https://i0.wp.com/www.atlaslisboa.com/wp-content/uploads/2017/05/wolf-trap-icon-10.png,https://i0.wp.com/www.atlaslisboa.com/wp-content/uploads/2017/05/wolf-trap-icon-10.png,,,S,S,,
Grappling Arrow,Dreya,17,,0,https://photos.smugmug.com/Interstellar-Fight-Club-IFC/Dreya/i-nffwcLz/0/d27cd0e4/O/IFC%20%28Block%29%20%282%29.png,1,1,1,2,,"(^Line^Line 6): Target any Unit or Platform. Choose between:
<br/>
<br/>^Pull^Pull the Unit to the closest unoccupied space or 
<br/>
<br/>^Jump^Jump until you are adjacent to the Target",,,,,,,,YES,YES,dre23,0,0,,,,,,,,,,,,,,,,,,,,,,,,,,,d,d,,,d,d,,,,,https://i0.wp.com/www.atlaslisboa.com/wp-content/uploads/2017/05/wolf-trap-icon-10.png,https://i0.wp.com/www.atlaslisboa.com/wp-content/uploads/2017/05/wolf-trap-icon-10.png,,,S,S,,
Reviving Tip,Dreya,18,,0,https://photos.smugmug.com/Interstellar-Fight-Club-IFC/Dreya/i-88grgzC/0/a6fb2df8/O/Screenshot%202023-01-27%20at%2011.05.41%20PM.png,1,1,1,1,^Draw^Draw 1,The ^Next^Next card you play will swap all its final ^d^ Damage values for ^Heal^Heal values,,,,,,,,YES,YES,dre24,0,0,,,,,,,,,,,,,,,,,,,,,,,,,,,d,d,,,d,d,,,,,https://i0.wp.com/www.atlaslisboa.com/wp-content/uploads/2017/05/wolf-trap-icon-10.png,https://i0.wp.com/www.atlaslisboa.com/wp-content/uploads/2017/05/wolf-trap-icon-10.png,,,S,S,,
Cruel Arrow,Dreya,19,,0,https://photos.smugmug.com/Interstellar-Fight-Club-IFC/Dreya/i-KWFpTb5/0/9f95e2ba/O/dreya_cruelarrow.png,1,1,1,1,,"(Range ▲): Deal ^d3^ Damage
<br/>If Target has half or less HP, deal this damage Twice
<br/>
<br/>^SparkOne^= ^Topdeck^Topdeck this card",,,,,,,,YES,YES,dre26,0,0,,,,,,,,,,,,,,,,,,,,,,,,,,,d,d,,,d,d,,,,,https://i0.wp.com/www.atlaslisboa.com/wp-content/uploads/2017/05/wolf-trap-icon-10.png,https://i0.wp.com/www.atlaslisboa.com/wp-content/uploads/2017/05/wolf-trap-icon-10.png,,,S,S,,
Soaring Arrow,Dreya,20,,0,https://photos.smugmug.com/Interstellar-Fight-Club-IFC/Dreya/i-sc25vHj/0/ff57d565/O/arrow-hunting-weapon-icon.png,1,1,1,1,,"(Range ▲): Deal ^dX^ Damage equal to your Distance from the Target 
<br/>
<br/>^SparkOne^= Add 1-2 to this Range
<br/>^SparkTwo^= Add 3-4 to this Range",,,,,,,,YES,YES,dre27,0,0,,,,,,,,,,,,,,,,,,,,,,,,,,,d,d,,,d,d,,,,,https://i0.wp.com/www.atlaslisboa.com/wp-content/uploads/2017/05/wolf-trap-icon-10.png,https://i0.wp.com/www.atlaslisboa.com/wp-content/uploads/2017/05/wolf-trap-icon-10.png,,,S,S,,
Survivor Skills,Dreya,21,,0,https://cdn-icons-png.flaticon.com/512/37/37818.png,1,2,T,2,"Gain ^b5^Block, 
<br/>then lose ▲^b^Block","Gain ▲^b^Block
<br/>
<br/>Lose up to ^b10^Block and ^h^Heal for half as much (rounded down)",,,,,,,,YES,YES,dre6,0,0,,,,,,,,,,,,,,,,,,,,,,,,,,,d,d,,,d,d,,,,,https://i0.wp.com/www.atlaslisboa.com/wp-content/uploads/2017/05/wolf-trap-icon-10.png,https://i0.wp.com/www.atlaslisboa.com/wp-content/uploads/2017/05/wolf-trap-icon-10.png,,,S,S,,
Stalking Arrow,Dreya,22,,0,https://thumbs.dreamstime.com/b/black-bird-was-hit-arrow-silhouette-vector-isolated-white-background-black-bird-was-hit-arrow-silhouette-vector-184428837.jpg,1,0,0,1,^Move^Move 0-1,(Range ▲): Deal ^d3^ Damage,There are 0 valid Targets you could attack with your Special Range,^Reclaim^Reclaim this card,,,,,,YES,YES,dre25,0,0,,,,,,,,,,,,,,,,,,,,,,,,,,,d,d,,,d,d,,,,,https://i0.wp.com/www.atlaslisboa.com/wp-content/uploads/2017/05/wolf-trap-icon-10.png,https://i0.wp.com/www.atlaslisboa.com/wp-content/uploads/2017/05/wolf-trap-icon-10.png,,,S,S,,
Tether Arrow,Dreya,23,,0,https://imagedelivery.net/yn0FeX4Pftgdx0G5XU_y6A/dreya_tetherarrow/public,1,1,0,1,,"Target a Unit or Platform ▲ spaces away
<br/>
<br/>^Jump^Jump 0-4, ending in a space the same distance from the Target",,,,,,,,YES,YES,dre29,0,0,,,,,,,,,,,,,,,,,,,,,,,,,,,d,d,,,d,d,,,,,https://i0.wp.com/www.atlaslisboa.com/wp-content/uploads/2017/05/wolf-trap-icon-10.png,https://i0.wp.com/www.atlaslisboa.com/wp-content/uploads/2017/05/wolf-trap-icon-10.png,,,S,S,,
Pull & Release,Dreya,X,,0,https://photos.smugmug.com/Interstellar-Fight-Club-IFC/Dreya/i-Fk7QSxb/0/9de1da7f/O/download%20%2813%29.png,1,1,---,,,,Always,"While in play, Arrow Cards have their Max Range increased by the amount of ^SparkX^ on them",,,,,,NO,NO,dre31,0,0,,,,,,,,,,,,,,,,,,,,,,,,,,,d,d,,,d,d,,,,,https://i0.wp.com/www.atlaslisboa.com/wp-content/uploads/2017/05/wolf-trap-icon-10.png,https://i0.wp.com/www.atlaslisboa.com/wp-content/uploads/2017/05/wolf-trap-icon-10.png,,,S,S,,
Contagion,Dreya,X,,0,https://photos.smugmug.com/Interstellar-Fight-Club-IFC/Dreya/i-MK5Ffdh/0/a3c6b3ad/O/dreya_contagion.png,1,2,2,,,"(Range^Range^4): Select any Enemy 
<br/>Copy up to 
<br/>^p3^ OR 2 Debuffs
<br/> onto its closest Ally 
<br/>
<br/>^spTwo^=Select the affected Ally and repeat this ability, targeting a new Enemy",spTwo,,,,,,,NO,NO,dre32,0,0,,,,,,,,,,,,,,,,,,,,,,,,,,,d,d,,,d,d,,,,,https://i0.wp.com/www.atlaslisboa.com/wp-content/uploads/2017/05/wolf-trap-icon-10.png,https://i0.wp.com/www.atlaslisboa.com/wp-content/uploads/2017/05/wolf-trap-icon-10.png,,,S,S,,
Anchor Arrow,Dreya,X,,0,https://photos.smugmug.com/Interstellar-Fight-Club-IFC/Dreya/i-XfvSHGc/0/dfce0354/O/Anchor%20Arrow.png,1,2,2,,,"Mark your ^Initiative^Initiative (before playing this card) with a Token. 
 Gain ^b4^ and ^Pin^**Pin** yourself for the Round",Reaction,(^RangeLob^2/2): ^dX^ equal to the total ^Initiative^ that has passed since you played this card,,,,,,NO,NO,dre37,0,0,,,,,,,,,,,,,,,,,,,,,,,,,,,d,d,,,d,d,,,,,https://i0.wp.com/www.atlaslisboa.com/wp-content/uploads/2017/05/wolf-trap-icon-10.png,https://i0.wp.com/www.atlaslisboa.com/wp-content/uploads/2017/05/wolf-trap-icon-10.png,,,S,S,,
Bug Swarm,Dreya,X,,0,,1,2,2,,,"(^Range^2/4) Apply ^p2^Poison to the Enemy in Range with the lowest Poison
then Repeat 2 times

^SparkOne^= You may shift the Min or Max Range of this ability by 1 in either direction",,,,,,,,NO,NO,dre39,0,0,,,,,,,,,,,,,,,,,,,,,,,,,,,d,d,,,d,d,,,,,https://i0.wp.com/www.atlaslisboa.com/wp-content/uploads/2017/05/wolf-trap-icon-10.png,https://i0.wp.com/www.atlaslisboa.com/wp-content/uploads/2017/05/wolf-trap-icon-10.png,,,S,S,,
Moonlight (dep),Dreya,X,,0,https://imagedelivery.net/yn0FeX4Pftgdx0G5XU_y6A/dreya_moonlight/public,1,1,T,1,,"Target any Unit within Range^Range^4 <br/>
You both Gain ^bX^ Block equal to your distance from each other<br/><br/>
^SparkOne^= Repeat this action, Targeting a Unit at a different distance from you",,,,,,,,NO,NO,dre7,0,0,,,,,,,,,,,,,,,,,,,,,,,,,,,d,d,,,d,d,,,,,https://i0.wp.com/www.atlaslisboa.com/wp-content/uploads/2017/05/wolf-trap-icon-10.png,https://i0.wp.com/www.atlaslisboa.com/wp-content/uploads/2017/05/wolf-trap-icon-10.png,,,S,S,,
Forager,Dreya,X,,20,https://cdn-icons-png.flaticon.com/512/621/621717.png,1,1,T,1,,"Look at the top (1+^SparkX^) Cards in your Draw Pile <br/><br/>^Discard^Discard any of them and ^Topdeck^Topdeck the rest in any order (do not collect Tokens)<br/><br/>
^SparkOne^ =Slot the top card of your Discard Pile",,,,,,,,NO,NO,dre11,0,0,,,,,,,,,,,,,,,,,,,,,,,,,,,d,d,,,d,d,,,,,https://i0.wp.com/www.atlaslisboa.com/wp-content/uploads/2017/05/wolf-trap-icon-10.png,https://i0.wp.com/www.atlaslisboa.com/wp-content/uploads/2017/05/wolf-trap-icon-10.png,,,S,S,,
Feral Fox,Dreya,X,,0,https://cdn0.iconfinder.com/data/icons/animal-attack-human/314/animal-attack-010-512.png,1,1,1,,,"^rushOne^Rush 1 and Gain ^Flex^Flex 1 
<br/>
<br/>^AllRight^ This Round: set all Min & Max Range values to 1. Each time you play a card that deals ^d^Dmg to an Enemy, ^Move^0-2",,,,,,,,NO,NO,dre30,0,0,,,,,,,,,,,,,,,,,,,,,,,,,,,d,d,,,d,d,,,,,https://i0.wp.com/www.atlaslisboa.com/wp-content/uploads/2017/05/wolf-trap-icon-10.png,https://i0.wp.com/www.atlaslisboa.com/wp-content/uploads/2017/05/wolf-trap-icon-10.png,,,S,S,,
Avalanche Arrow,Dreya,X,,0,https://photos.smugmug.com/Interstellar-Fight-Club-IFC/Dreya/i-gnG4jsh/0/ef2e089f/O/Avalanche%20Arrow.png,1,1,1,,,(!): Targeted space ^Target^ must be an Platform,,,,,,,,NO,NO,dre33,0,0,,,,,,,,,,,,,,,,,,,,,,,,,,,d,d,,,d,d,,,,,https://i0.wp.com/www.atlaslisboa.com/wp-content/uploads/2017/05/wolf-trap-icon-10.png,https://i0.wp.com/www.atlaslisboa.com/wp-content/uploads/2017/05/wolf-trap-icon-10.png,,,S,S,,
Wailing Winds,Dreya,X,,0,https://imagedelivery.net/yn0FeX4Pftgdx0G5XU_y6A/dreya_wailingwinds/public,1,1,1,,,"^Scatter^Scatter 2 to ALL Units 
within ^Range^2

Players may choose whether they or their Summons are affected by this

^spOne^= Do this again",,,,,,,,NO,NO,dre34,0,0,,,,,,,,,,,,,,,,,,,,,,,,,,,d,d,,,d,d,,,,,https://i0.wp.com/www.atlaslisboa.com/wp-content/uploads/2017/05/wolf-trap-icon-10.png,https://i0.wp.com/www.atlaslisboa.com/wp-content/uploads/2017/05/wolf-trap-icon-10.png,,,S,S,,
Volt Arrow,Dreya,X,,0,https://imagedelivery.net/yn0FeX4Pftgdx0G5XU_y6A/dreya_voltarrow/public,1,1,1,,,"(^Range^4/4): ^d2^

On ^Hit^Hit, you may ^Loop^Loop this Card with (-1 Range) and (+1 Damage)",,,,,,,,NO,NO,dre35,0,0,,,,,,,,,,,,,,,,,,,,,,,,,,,d,d,,,d,d,,,,,https://i0.wp.com/www.atlaslisboa.com/wp-content/uploads/2017/05/wolf-trap-icon-10.png,https://i0.wp.com/www.atlaslisboa.com/wp-content/uploads/2017/05/wolf-trap-icon-10.png,,,S,S,,
Canopy,Dreya,X,,0,https://imagedelivery.net/yn0FeX4Pftgdx0G5XU_y6A/dreya_canopy/public,1,1,1,,,Then Gain ^bX^ equal to Total ^bX^ gained by all other Units,,,,,,,,NO,NO,dre36,0,0,,,,,,,,,,,,,,,,,,,,,,,,,,,d,d,,,d,d,,,,,https://i0.wp.com/www.atlaslisboa.com/wp-content/uploads/2017/05/wolf-trap-icon-10.png,https://i0.wp.com/www.atlaslisboa.com/wp-content/uploads/2017/05/wolf-trap-icon-10.png,,,S,S,,
new_card,Dreya,X,,0,,1,1,1,,,new_description,,,,,,,,NO,NO,dre40,0,0,,,,,,,,,,,,,,,,,,,,,,,,,,,d,d,,,d,d,,,,,https://i0.wp.com/www.atlaslisboa.com/wp-content/uploads/2017/05/wolf-trap-icon-10.png,https://i0.wp.com/www.atlaslisboa.com/wp-content/uploads/2017/05/wolf-trap-icon-10.png,,,S,S,,
Dusk,Dreya,X,,20,https://cdn-icons-png.flaticon.com/512/171/171145.png,1,1,1,0,,"Clear a Slot and refund up to 
2 Tokens on it",Reaction,^Draw^Draw until the total Cost of your Hand exceeds the amount of Tokens in your Supply,,,,,,NO,NO,dre41,0,0,,,,,,,,,,,,,,,,,,,,,,,,,,,d,d,,,d,d,,,,,https://i0.wp.com/www.atlaslisboa.com/wp-content/uploads/2017/05/wolf-trap-icon-10.png,https://i0.wp.com/www.atlaslisboa.com/wp-content/uploads/2017/05/wolf-trap-icon-10.png,,,S,S,,
Vile Vial,Dreya,X,,0,,1,1,1,0,,,Always,,,,,,,NO,NO,dre42,0,0,,,,,,,,,,,,,,,,,,,,,,,,,,,d,d,,,d,d,,,,,https://i0.wp.com/www.atlaslisboa.com/wp-content/uploads/2017/05/wolf-trap-icon-10.png,https://i0.wp.com/www.atlaslisboa.com/wp-content/uploads/2017/05/wolf-trap-icon-10.png,,,S,S,,
Seeking Arrow,Dreya,X,,0,,1,0,0,,,(Range^Range^ 3/4):,Always,Round Start: ^Reclaim^Reclaim this and any Tokens on it,,,,,,NO,NO,dre38,0,0,,,,,,,,,,,,,,,,,,,,,,,,,,,d,d,,,d,d,,,,,https://i0.wp.com/www.atlaslisboa.com/wp-content/uploads/2017/05/wolf-trap-icon-10.png,https://i0.wp.com/www.atlaslisboa.com/wp-content/uploads/2017/05/wolf-trap-icon-10.png,,,S,S,,
Basic Arrow,Dreya,X,,40,https://photos.smugmug.com/Interstellar-Fight-Club-IFC/Dreya/i-z7VTdBL/0/b6edb976/O/download%20%2814%29.png,0,1,P,0,,"(Range ▲): Deal ^d3^ Damage

^SparkOne^=^d+2^ DMG",,,,,,,,YES,YES,dre1,0,0,,,,,,,,,,,,,,,,,,,,,,,,,,,d,d,,,d,d,,,,,https://i0.wp.com/www.atlaslisboa.com/wp-content/uploads/2017/05/wolf-trap-icon-10.png,https://i0.wp.com/www.atlaslisboa.com/wp-content/uploads/2017/05/wolf-trap-icon-10.png,,,S,S,,
The Right Arrow,Dreya,X,,0,https://photos.smugmug.com/Interstellar-Fight-Club-IFC/Dreya/i-bKmfTc3/0/e75cdf45/O/download%20%2816%29.png,0,1,1,1,,"Exchange 1-2 Cards
<br/>
<br/>For each 'Arrow' card you Discarded, ^Draw^Draw 1",,,,,,,,YES,YES,dre15,0,0,,,,,,,,,,,,,,,,,,,,,,,,,,,d,d,,,d,d,,,,,https://i0.wp.com/www.atlaslisboa.com/wp-content/uploads/2017/05/wolf-trap-icon-10.png,https://i0.wp.com/www.atlaslisboa.com/wp-content/uploads/2017/05/wolf-trap-icon-10.png,,,S,S,,
Scent of Prey,Dreya,X,,0,https://imagedelivery.net/yn0FeX4Pftgdx0G5XU_y6A/dreya_scentofprey/quality,0,1,T,0,^Draw^Draw 1,Set your ▲ Special Range equal to the distance of an Enemy within 4 spaces of you,,,,,,,,YES,YES,dre2,0,0,,,,,,,,,,,,,,,,,,,,,,,,,,,d,d,,,d,d,,,,,https://i0.wp.com/www.atlaslisboa.com/wp-content/uploads/2017/05/wolf-trap-icon-10.png,https://i0.wp.com/www.atlaslisboa.com/wp-content/uploads/2017/05/wolf-trap-icon-10.png,,,S,S,,
Vantage Point,Dreya,X,,0,https://imagedelivery.net/yn0FeX4Pftgdx0G5XU_y6A/dreya_vantagepoint/public,1,1,1,0,,"^Scatter^Scatter 2 with^Jump^Jump
<br/>Only for the ^Next^Next card you Use,
<br/>You may Double all damage",,,,,,,,NO,NO,dre28,0,0,,,,,,,,,,,,,,,,,,,,,,,,,,,d,d,,,d,d,,,,,https://i0.wp.com/www.atlaslisboa.com/wp-content/uploads/2017/05/wolf-trap-icon-10.png,https://i0.wp.com/www.atlaslisboa.com/wp-content/uploads/2017/05/wolf-trap-icon-10.png,,,S,S,,
,,X,,,,,,,,,,,,,,,,,,,,,,,,,,,,,,,,,,,,,,,,,,,,,,,,,,,,,,,,,,,,,,S,S,,
,,X,,,,,,,,,,,,,,,,,,,,,,,,,,,,,,,,,,,,,,,,,,,,,,,,,,,,,,,,,,,,,,S,S,,
,,X,,,,,,,,,,,,,,,,,,,,,,,,,,,,,,,,,,,,,,,,,,,,,,,,,,,,,,,,,,,,,,S,S,,
,,X,,,,,,,,,,,,,,,,,,,,,,,,,,,,,,,,,,,,,,,,,,,,,,,,,,,,,,,,,,,,,,S,S,,
,,X,,,,,,,,,,,,,,,,,,,,,,,,,,,,,,,,,,,,,,,,,,,,,,,,,,,,,,,,,,,,,,S,S,,
,,X,,,,,,,,,,,,,,,,,,,,,,,,,,,,,,,,,,,,,,,,,,,,,,,,,,,,,,,,,,,,,,S,S,,
,,X,,,,,,,,,,,,,,,,,,,,,,,,,,,,,,,,,,,,,,,,,,,,,,,,,,,,,,,,,,,,,,S,S,,
,,X,,,,,,,,,,,,,,,,,,,,,,,S,S,S,S,S,S,S,S,S,S,S,S,S,S,S,S,S,S,S,S,S,S,S,S,S,S,S,S,S,S,S,S,S,S,S,S,S,S,S,S,S,,
,,X,,,,,,,,,,,,,,,,,,,,,,,S,S,S,S,S,S,S,S,S,S,S,S,S,S,S,S,S,S,S,S,S,S,S,S,S,S,S,S,S,S,S,S,S,S,S,S,S,S,S,S,S,,
,,X,,,,,,,,,,,,,,,,,,,,,,,,,,,,,,,,,,,,,,,,,,,,,,,,,,,,,,,,,,,,,,,,,
,,X,,,,,,,,,,,,,,,,,,,,,,,,,,,,,,,,,,,,,,,,,,,,,,,,,,,,,,,,,,,,,,,,,
,,X,,,,,,,,,,,,,,,,,,,,,,,,,,,,,,,,,,,,,,,,,,,,,,,,,,,,,,,,,,,,,,,,,
,,X,,,,,,,,,,,,,,,,,,,,,,,,,,,,,,,,,,,,,,,,,,,,,,,,,,,,,,,,,,,,,,,,,
,,X,,,,,,,,,,,,,,,,,,,,,,,,,,,,,,,,,,,,,,,,,,,,,,,,,,,,,,,,,,,,,,,,,
,,X,,,,,,,,,,,,,,,,,,,,,,,,,,,,,,,,,,,,,,,,,,,,,,,,,,,,,,,,,,,,,,,,,
,,X,,,,,,,,,,,,,,,,,,,,,,,,,,,,,,,,,,,,,,,,,,,,,,,,,,,,,,,,,,,,,,,,,
,,X,,,,,,,,,,,,,,,,,,,,,,,,,,,,,,,,,,,,,,,,,,,,,,,,,,,,,,,,,,,,,,,,,
,,X,,,,,,,,,,,,,,,,,,,,,,,,,,,,,,,,,,,,,,,,,,,,,,,,,,,,,,,,,,,,,,,,,
,,X,,,,,,,,,,,,,,,,,,,,,,,,,,,,,,,,,,,,,,,,,,,,,,,,,,,,,,,,,,,,,,,,,
,,X,,,,,,,,,,,,,,,,,,,,,,,,,,,,,,,,,,,,,,,,,,,,,,,,,,,,,,,,,,,,,,,,,
,,X,,,,,,,,,,,,,,,,,,,,,,,,,,,,,,,,,,,,,,,,,,,,,,,,,,,,,,,,,,,,,,,,,
,,X,,,,,,,,,,,,,,,,,,,,,,,,,,,,,,,,,,,,,,,,,,,,,,,,,,,,,,,,,,,,,,,,,
,,X,,,,,,,,,,,,,,,,,,,,,,,,,,,,,,,,,,,,,,,,,,,,,,,,,,,,,,,,,,,,,,,,,
,,X,,,,,,,,,,,,,,,,,,,,,,,,,,,,,,,,,,,,,,,,,,,,,,,,,,,,,,,,,,,,,,,,,
,,X,,,,,,,,,,,,,,,,,,,,,,,,,,,,,,,,,,,,,,,,,,,,,,,,,,,,,,,,,,,,,,,,,
,,X,,,,,,,,,,,,,,,,,,,,,,,,,,,,,,,,,,,,,,,,,,,,,,,,,,,,,,,,,,,,,,,,,
,,X,,,,,,,,,,,,,,,,,,,,,,,,,,,,,,,,,,,,,,,,,,,,,,,,,,,,,,,,,,,,,,,,,
,,X,,,,,,,,,,,,,,,,,,,,,,,,,,,,,,,,,,,,,,,,,,,,,,,,,,,,,,,,,,,,,,,,,
,,X,,,,,,,,,,,,,,,,,,,,,,,,,,,,,,,,,,,,,,,,,,,,,,,,,,,,,,,,,,,,,,,,,
,,X,,,,,,,,,,,,,,,,,,,,,,,,,,,,,,,,,,,,,,,,,,,,,,,,,,,,,,,,,,,,,,,,,
,,X,,,,,,,,,,,,,,,,,,,,,,,,,,,,,,,,,,,,,,,,,,,,,,,,,,,,,,,,,,,,,,,,,
,,X,,,,,,,,,,,,,,,,,,,,,,,,,,,,,,,,,,,,,,,,,,,,,,,,,,,,,,,,,,,,,,,,,
,,X,,,,,,,,,,,,,,,,,,,,,,,,,,,,,,,,,,,,,,,,,,,,,,,,,,,,,,,,,,,,,,,,,
,,X,,,,,,,,,,,,,,,,,,,,,,,,,,,,,,,,,,,,,,,,,,,,,,,,,,,,,,,,,,,,,,,,,
,,X,,,,,,,,,,,,,,,,,,,,,,,,,,,,,,,,,,,,,,,,,,,,,,,,,,,,,,,,,,,,,,,,,
,,X,,,,,,,,,,,,,,,,,,,,,,,,,,,,,,,,,,,,,,,,,,,,,,,,,,,,,,,,,,,,,,,,,
,,X,,,,,,,,,,,,,,,,,,,,,,,,,,,,,,,,,,,,,,,,,,,,,,,,,,,,,,,,,,,,,,,,,
,,X,,,,,,,,,,,,,,,,,,,,,,,,,,,,,,,,,,,,,,,,,,,,,,,,,,,,,,,,,,,,,,,,,
,,X,,,,,,,,,,,,,,,,,,,,,,,,,,,,,,,,,,,,,,,,,,,,,,,,,,,,,,,,,,,,,,,,,
,,X,,,,,,,,,,,,,,,,,,,,,,,,,,,,,,,,,,,,,,,,,,,,,,,,,,,,,,,,,,,,,,,,,
,,X,,,,,,,,,,,,,,,,,,,,,,,,,,,,,,,,,,,,,,,,,,,,,,,,,,,,,,,,,,,,,,,,,
,,X,,,,,,,,,,,,,,,,,,,,,,,,,,,,,,,,,,,,,,,,,,,,,,,,,,,,,,,,,,,,,,,,,
,,X,,,,,,,,,,,,,,,,,,,,,,,,,,,,,,,,,,,,,,,,,,,,,,,,,,,,,,,,,,,,,,,,,
,,X,,,,,,,,,,,,,,,,,,,,,,,,,,,,,,,,,,,,,,,,,,,,,,,,,,,,,,,,,,,,,,,,,
,,X,,,,,,,,,,,,,,,,,,,,,,,,,,,,,,,,,,,,,,,,,,,,,,,,,,,,,,,,,,,,,,,,,
,,X,,,,,,,,,,,,,,,,,,,,,,,,,,,,,,,,,,,,,,,,,,,,,,,,,,,,,,,,,,,,,,,,,
,,X,,,,,,,,,,,,,,,,,,,,,,,,,,,,,,,,,,,,,,,,,,,,,,,,,,,,,,,,,,,,,,,,,
,,X,,,,,,,,,,,,,,,,,,,,,,,,,,,,,,,,,,,,,,,,,,,,,,,,,,,,,,,,,,,,,,,,,
,,X,,,,,,,,,,,,,,,,,,,,,,,,,,,,,,,,,,,,,,,,,,,,,,,,,,,,,,,,,,,,,,,,,
,,X,,,,,,,,,,,,,,,,,,,,,,,,,,,,,,,,,,,,,,,,,,,,,,,,,,,,,,,,,,,,,,,,,
,,X,,,,,,,,,,,,,,,,,,,,,,,,,,,,,,,,,,,,,,,,,,,,,,,,,,,,,,,,,,,,,,,,,
,,X,,,,,,,,,,,,,,,,,,,,,,,,,,,,,,,,,,,,,,,,,,,,,,,,,,,,,,,,,,,,,,,,,
,,X,,,,,,,,,,,,,,,,,,,,,,,,,,,,,,,,,,,,,,,,,,,,,,,,,,,,,,,,,,,,,,,,,
,,X,,,,,,,,,,,,,,,,,,,,,,,,,,,,,,,,,,,,,,,,,,,,,,,,,,,,,,,,,,,,,,,,,
,,X,,,,,,,,,,,,,,,,,,,,,,,,,,,,,,,,,,,,,,,,,,,,,,,,,,,,,,,,,,,,,,,,,
,,X,,,,,,,,,,,,,,,,,,,,,,,,,,,,,,,,,,,,,,,,,,,,,,,,,,,,,,,,,,,,,,,,,
,,X,,,,,,,,,,,,,,,,,,,,,,,,,,,,,,,,,,,,,,,,,,,,,,,,,,,,,,,,,,,,,,,,,
,,X,,,,,,,,,,,,,,,,,,,,,,,,,,,,,,,,,,,,,,,,,,,,,,,,,,,,,,,,,,,,,,,,,
,,X,,,,,,,,,,,,,,,,,,,,,,,,,,,,,,,,,,,,,,,,,,,,,,,,,,,,,,,,,,,,,,,,,
,,X,,,,,,,,,,,,,,,,,,,,,,,,,,,,,,,,,,,,,,,,,,,,,,,,,,,,,,,,,,,,,,,,,
,,X,,,,,,,,,,,,,,,,,,,,,,,,,,,,,,,,,,,,,,,,,,,,,,,,,,,,,,,,,,,,,,,,,
,,X,,,,,,,,,,,,,,,,,,,,,,,,,,,,,,,,,,,,,,,,,,,,,,,,,,,,,,,,,,,,,,,,,
,,X,,,,,,,,,,,,,,,,,,,,,,,,,,,,,,,,,,,,,,,,,,,,,,,,,,,,,,,,,,,,,,,,,
,,X,,,,,,,,,,,,,,,,,,,,,,,,,,,,,,,,,,,,,,,,,,,,,,,,,,,,,,,,,,,,,,,,,
,,X,,,,,,,,,,,,,,,,,,,,,,,,,,,,,,,,,,,,,,,,,,,,,,,,,,,,,,,,,,,,,,,,,
,,X,,,,,,,,,,,,,,,,,,,,,,,,,,,,,,,,,,,,,,,,,,,,,,,,,,,,,,,,,,,,,,,,,
,,X,,,,,,,,,,,,,,,,,,,,,,,,,,,,,,,,,,,,,,,,,,,,,,,,,,,,,,,,,,,,,,,,,
,,X,,,,,,,,,,,,,,,,,,,,,,,,,,,,,,,,,,,,,,,,,,,,,,,,,,,,,,,,,,,,,,,,,
,,X,,,,,,,,,,,,,,,,,,,,,,,,,,,,,,,,,,,,,,,,,,,,,,,,,,,,,,,,,,,,,,,,,
,,X,,,,,,,,,,,,,,,,,,,,,,,,,,,,,,,,,,,,,,,,,,,,,,,,,,,,,,,,,,,,,,,,,
,,X,,,,,,,,,,,,,,,,,,,,,,,,,,,,,,,,,,,,,,,,,,,,,,,,,,,,,,,,,,,,,,,,,
,,X,,,,,,,,,,,,,,,,,,,,,,,,,,,,,,,,,,,,,,,,,,,,,,,,,,,,,,,,,,,,,,,,,
,,X,,,,,,,,,,,,,,,,,,,,,,,,,,,,,,,,,,,,,,,,,,,,,,,,,,,,,,,,,,,,,,,,,
,,X,,,,,,,,,,,,,,,,,,,,,,,,,,,,,,,,,,,,,,,,,,,,,,,,,,,,,,,,,,,,,,,,,
,,X,,,,,,,,,,,,,,,,,,,,,,,,,,,,,,,,,,,,,,,,,,,,,,,,,,,,,,,,,,,,,,,,,
,,X,,,,,,,,,,,,,,,,,,,,,,,,,,,,,,,,,,,,,,,,,,,,,,,,,,,,,,,,,,,,,,,,,
,,X,,,,,,,,,,,,,,,,,,,,,,,,,,,,,,,,,,,,,,,,,,,,,,,,,,,,,,,,,,,,,,,,,
,,X,,,,,,,,,,,,,,,,,,,,,,,,,,,,,,,,,,,,,,,,,,,,,,,,,,,,,,,,,,,,,,,,,
,,X,,,,,,,,,,,,,,,,,,,,,,,,,,,,,,,,,,,,,,,,,,,,,,,,,,,,,,,,,,,,,,,,,
,,X,,,,,,,,,,,,,,,,,,,,,,,,,,,,,,,,,,,,,,,,,,,,,,,,,,,,,,,,,,,,,,,,,
,,X,,,,,,,,,,,,,,,,,,,,,,,,,,,,,,,,,,,,,,,,,,,,,,,,,,,,,,,,,,,,,,,,,
,,X,,,,,,,,,,,,,,,,,,,,,,,,,,,,,,,,,,,,,,,,,,,,,,,,,,,,,,,,,,,,,,,,,
,,X,,,,,,,,,,,,,,,,,,,,,,,,,,,,,,,,,,,,,,,,,,,,,,,,,,,,,,,,,,,,,,,,,
,,X,,,,,,,,,,,,,,,,,,,,,,,,,,,,,,,,,,,,,,,,,,,,,,,,,,,,,,,,,,,,,,,,,
,,X,,,,,,,,,,,,,,,,,,,,,,,,,,,,,,,,,,,,,,,,,,,,,,,,,,,,,,,,,,,,,,,,,
,,X,,,,,,,,,,,,,,,,,,,,,,,,,,,,,,,,,,,,,,,,,,,,,,,,,,,,,,,,,,,,,,,,,
,,X,,,,,,,,,,,,,,,,,,,,,,,,,,,,,,,,,,,,,,,,,,,,,,,,,,,,,,,,,,,,,,,,,
,,X,,,,,,,,,,,,,,,,,,,,,,,,,,,,,,,,,,,,,,,,,,,,,,,,,,,,,,,,,,,,,,,,,
