<?xml version="1.0" encoding="UTF-8" standalone="no"?>
<!-- Created with Inkscape (http://www.inkscape.org/) -->

<svg
   width="196.50821mm"
   height="196.50821mm"
   viewBox="0 0 196.50821 196.50821"
   version="1.1"
   id="svg5"
   xml:space="preserve"
   inkscape:version="1.2.2 (b0a8486, 2022-12-01)"
   sodipodi:docname="cassius.svg"
   xmlns:inkscape="http://www.inkscape.org/namespaces/inkscape"
   xmlns:sodipodi="http://sodipodi.sourceforge.net/DTD/sodipodi-0.dtd"
   xmlns="http://www.w3.org/2000/svg"
   xmlns:svg="http://www.w3.org/2000/svg"><sodipodi:namedview
     id="namedview7"
     pagecolor="#505050"
     bordercolor="#eeeeee"
     borderopacity="1"
     inkscape:showpageshadow="0"
     inkscape:pageopacity="0"
     inkscape:pagecheckerboard="0"
     inkscape:deskcolor="#505050"
     inkscape:document-units="mm"
     showgrid="false"
     inkscape:zoom="0.22350635"
     inkscape:cx="1680.0417"
     inkscape:cy="534.66042"
     inkscape:window-width="1680"
     inkscape:window-height="937"
     inkscape:window-x="0"
     inkscape:window-y="25"
     inkscape:window-maximized="1"
     inkscape:current-layer="layer5" /><defs
     id="defs2" /><g
     inkscape:groupmode="layer"
     id="layer3"
     inkscape:label="cassius"
     style="display:inline"
     inkscape:export-filename="cassius-tshirt.svg"
     inkscape:export-xdpi="150"
     inkscape:export-ydpi="150"
     transform="translate(-228.34767,-51.323086)"><path
       id="path1135"
       style="fill:#010101;stroke:#ffffff;stroke-width:2;stroke-opacity:1"
       inkscape:label="black base"
       d="m 326.43503,52.352576 c -27.92286,0.838833 -42.19732,12.543211 -63.43713,43.878759 -6.44627,9.510325 -27.28567,29.528445 -27.28567,53.248945 0,35.29897 21.18052,61.1845 77.08609,77.33922 2.64292,5.72569 8.96944,16.20917 13.66184,19.73227 4.69241,-3.5231 9.68606,-12.79452 12.32898,-18.52021 55.90557,-16.15472 78.70217,-43.25231 78.70217,-78.55128 0,-23.7205 -20.8394,-43.73862 -27.28567,-53.248945 C 368.96583,64.895787 354.35789,53.191409 326.43503,52.352576 Z"
       sodipodi:nodetypes="csscccssc"
       inkscape:export-filename="tshirt/cassius.svg"
       inkscape:export-xdpi="150"
       inkscape:export-ydpi="150" /><path
       id="path1404"
       style="display:inline;fill:#ffffff;fill-opacity:1;stroke:none;stroke-width:2"
       inkscape:label="white shiny"
       d="m 310.0716,93.910651 c -9.66091,-4.426465 -21.33441,-10.262713 -39.36931,-0.712045 13.38056,-15.346025 20.67367,-22.839765 35.13643,-30.453834 -9.16474,11.9514 -12.47936,17.911479 4.23288,31.165879 z m 33.06034,0 c 9.66091,-4.426465 21.33441,-10.262713 39.36931,-0.712045 -13.38056,-15.346025 -20.67367,-22.839765 -35.13643,-30.453834 9.16474,11.9514 12.47936,17.911479 -4.23288,31.165879 z"
       sodipodi:nodetypes="cccc" /><path
       id="path1410"
       style="display:inline;fill:#cb00d2;fill-opacity:1;stroke:none;stroke-width:2"
       inkscape:label="pink shiney"
       d="m 300.58627,88.851809 c -8.03485,-3.523101 -15.3722,-4.842525 -25.63817,1.185021 7.96038,-8.390117 11.54969,-11.186361 18.24351,-16.271009 -3.47354,6.531212 -3.35537,8.697159 7.39466,15.085988 z m 52.031,0 c 8.03485,-3.523101 15.3722,-4.842525 25.63817,1.185021 -7.96038,-8.390117 -11.54969,-11.186361 -18.24351,-16.271009 3.47354,6.531212 3.35537,8.697159 -7.39466,15.085988 z"
       sodipodi:nodetypes="cccc" /><path
       id="path1416"
       style="display:inline;fill:#cb00d2;fill-opacity:1;stroke:none;stroke-width:2"
       inkscape:label="pink hood"
       d="m 291.4773,93.421688 c -35.75271,-0.430397 -41.4676,31.547362 -41.5246,35.140492 -0.62776,39.5475 25.58538,56.01974 56.82909,73.4565 -0.29465,-1.25961 -1.45387,-0.29117 -1.58698,-2.80655 -47.11038,-26.08795 -50.62455,-52.46873 -50.82532,-63.88809 -0.44563,-25.34546 19.17313,-38.822376 37.13158,-39.91281 14.01481,-0.850977 27.23892,18.14928 34.8263,18.14928 7.58738,0 21.36029,-19.000257 35.3751,-18.14928 17.95845,1.090434 37.57721,14.56735 37.13158,39.91281 -0.20077,11.41936 -3.71494,37.80014 -50.82532,63.88809 -0.13311,2.51538 -1.29233,1.54694 -1.58698,2.80655 31.24371,-17.43676 57.45685,-33.909 56.82909,-73.4565 -0.057,-3.59313 -5.77189,-35.570889 -41.5246,-35.140492 -18.52871,0.223052 -26.94437,16.559712 -35.39887,16.559712 -8.4545,0 -16.32136,-16.33666 -34.85007,-16.559712 z" /><path
       id="path1480"
       style="display:inline;fill:#cb00d2;fill-opacity:1;stroke:none;stroke-width:2"
       inkscape:label="eyes"
       d="m 300.00378,142.89174 c 3.99227,11.15895 -0.31696,25.86959 -0.31696,25.86959 0,0 -8.09357,-5.97604 -12.27708,-16.50895 -4.18352,-10.5329 1.18273,-18.07201 1.18273,-18.07201 0,0 7.63407,-1.8465 11.41131,8.71137 z m 53.19598,0 c -3.99227,11.15895 0.31696,25.86959 0.31696,25.86959 0,0 8.09357,-5.97604 12.27708,-16.50895 4.18352,-10.5329 -1.18273,-18.07201 -1.18273,-18.07201 0,0 -7.63407,-1.8465 -11.41131,8.71137 z"
       sodipodi:nodetypes="sczcs" /><path
       id="path1494"
       style="display:inline;fill:#ffffff;fill-opacity:1;stroke:none;stroke-width:2"
       inkscape:label="white beak"
       d="m 323.04681,157.80148 c 0,0 5.96807,62.44507 -1.65406,63.5031 -4.4976,0.62431 -11.76851,-9.90038 -16.36464,-20.44893 -3.88927,-8.92626 -5.75798,-12.96017 -2.68722,-19.78152 0.0948,2.89136 0.26013,4.59836 1.96127,6.46614 -0.68556,-6.02018 2.2857,-13.89921 4.39115,-16.05403 0.0337,2.78529 0.56778,3.5808 0.98549,5.57556 2.35631,-4.96639 10.33939,-16.29201 13.36801,-19.26032 z m 7.10992,0 c 0,0 -5.96807,62.44507 1.65406,63.5031 4.4976,0.62431 11.76851,-9.90038 16.36464,-20.44893 3.88927,-8.92626 5.75798,-12.96017 2.68722,-19.78152 -0.0948,2.89136 -0.26013,4.59836 -1.96127,6.46614 0.68556,-6.02018 -2.2857,-13.89921 -4.39115,-16.05403 -0.0337,2.78529 -0.56778,3.5808 -0.98549,5.57556 -2.35631,-4.96639 -10.33939,-16.29201 -13.36801,-19.26032 z"
       sodipodi:nodetypes="cssccccc" /><path
       id="path1488"
       style="display:inline;fill:#cb00d2;fill-opacity:1;stroke:none;stroke-width:2"
       inkscape:label="beak"
       d="m 326.33974,155.67869 v 89.79726 c 0,0 -11.43834,-6.60731 -21.18094,-43.61194 -1.28022,-4.86259 11.11001,23.70367 16.49688,17.33876 5.85737,-6.92083 0.56778,-44.69931 -0.58001,-58.4222 -0.21112,-2.52421 2.98689,-4.01218 5.26407,-5.10188 z"
       sodipodi:nodetypes="ccsssc" /><path
       id="path1501"
       style="display:inline;fill:#000000;fill-opacity:1;stroke:none;stroke-width:2"
       inkscape:label="nostrils"
       d="m 317.77192,193.77177 c 0,0 -3.64903,-5.01643 -3.79208,-8.37749 -0.14305,-3.36106 3.40499,-5.09199 3.40499,-5.09199 z m 17.6597,0 c 0,0 3.64903,-5.01643 3.79208,-8.37749 0.14305,-3.36106 -3.40499,-5.09199 -3.40499,-5.09199 z"
       sodipodi:nodetypes="czcc" /><path
       id="path1715"
       style="display:inline;fill:#ffffff;fill-opacity:1;stroke:none;stroke-width:2"
       inkscape:label="white eyebrows"
       d="m 276.45634,131.22904 c 4.58653,-3.63576 23.78448,-3.08089 19.0208,54.27667 6.49905,-8.64147 10.19368,-20.47092 8.28881,-30.04173 -1.16414,5.99128 -3.71156,11.9979 -5.8327,14.34433 5.64339,-17.8102 7.27739,-37.21577 -5.56083,-43.37258 2.35147,3.65808 5.20023,9.01332 2.93916,18.84327 -1.01794,-8.24262 -2.06488,-15.00171 -8.02054,-18.6828 -5.82783,-3.60209 -10.25264,1.35782 -10.8347,4.63284 z m 82.94254,0 c -4.58653,-3.63576 -23.78448,-3.08089 -19.0208,54.27667 -6.49905,-8.64147 -10.19368,-20.47092 -8.28881,-30.04173 1.16414,5.99128 3.71156,11.9979 5.8327,14.34433 -5.64339,-17.8102 -7.27739,-37.21577 5.56083,-43.37258 -2.35147,3.65808 -5.20023,9.01332 -2.93916,18.84327 1.01794,-8.24262 2.06488,-15.00171 8.02054,-18.6828 5.82783,-3.60209 10.25264,1.35782 10.8347,4.63284 z"
       sodipodi:nodetypes="ccccccsc"
       transform="matrix(0.86348039,0,0,0.59300411,51.873015,49.922034)" /><path
       id="path1721"
       style="display:inline;fill:#ffffff;fill-opacity:1;stroke:none;stroke-width:2"
       inkscape:label="white cheek"
       d="m 264.72165,98.150329 c -1.64333,4.217331 -4.21653,10.283171 -5.2917,22.683501 -0.68394,-2.64602 -3.49054,-10.60321 -3.03716,-21.280134 -3.22596,5.541654 -12.8069,30.935034 -4.70701,60.865194 -2.49625,-4.05683 -5.20341,-9.36311 -7.33023,-15.35374 0.15414,31.04692 18.2916,70.48526 38.78517,93.34459 -16.11113,-24.83653 -26.86004,-38.31571 -36.85949,-82.36794 3.28022,6.83178 6.71383,11.55322 10.08253,14.98441 -8.25097,-21.33476 -6.12634,-51.05438 -1.598,-60.23969 0.75025,4.94361 4.01727,16.77228 6.87451,19.53377 -0.0828,-4.76499 -0.32329,-14.52434 3.08143,-32.169961 z m 106.41192,0 c 1.64333,4.217331 4.21653,10.283171 5.2917,22.683501 0.68394,-2.64602 3.49054,-10.60321 3.03716,-21.280134 3.22596,5.541654 12.8069,30.935034 4.70701,60.865194 2.49625,-4.05683 5.20341,-9.36311 7.33023,-15.35374 -0.15414,31.04692 -18.2916,70.48526 -38.78517,93.34459 16.11113,-24.83653 26.86004,-38.31571 36.85949,-82.36794 -3.28022,6.83178 -6.71383,11.55322 -10.08253,14.98441 8.25097,-21.33476 6.12634,-51.05438 1.598,-60.23969 -0.75025,4.94361 -4.01727,16.77228 -6.87451,19.53377 0.0828,-4.76499 0.32329,-14.52434 -3.08143,-32.169961 z"
       sodipodi:nodetypes="cccccccccccc"
       transform="matrix(0.86348039,0,0,0.59300411,51.873015,49.922034)" /><path
       id="path1727"
       style="display:inline;fill:#cb00d2;fill-opacity:1;stroke:none;stroke-width:2"
       inkscape:label="pink side hood"
       d="m 255.24013,166.54053 c -10.56595,-16.96036 -15.52149,-16.89378 -11.62818,0.99176 -9.84301,-18.6652 1.8123,-36.32673 1.8123,-36.32673 0,0 0.25524,19.99084 9.81588,35.33497 z m 142.72328,0 c 10.56595,-16.96036 15.52149,-16.89378 11.62818,0.99176 9.84301,-18.6652 -1.8123,-36.32673 -1.8123,-36.32673 0,0 -0.25524,19.99084 -9.81588,35.33497 z"
       sodipodi:nodetypes="cccc" /><path
       id="path1733"
       style="display:inline;fill:#ffffff;fill-opacity:1;stroke:none;stroke-width:2"
       inkscape:label="white side hood"
       d="m 304.59598,220.83197 c -11.69408,-2.71768 -39.28281,-20.06666 -49.06812,-30.6665 45.24668,29.49197 43.1475,15.15548 27.81632,1.68607 7.98245,4.70361 13.41681,8.44766 16.79456,10.0034 1.10954,5.69848 3.00507,13.92712 4.45724,18.97703 z m 44.01158,0 c 11.69408,-2.71768 39.28281,-20.06666 49.06812,-30.6665 -45.24668,29.49197 -43.1475,15.15548 -27.81632,1.68607 -7.98245,4.70361 -13.41681,8.44766 -16.79456,10.0034 -1.10954,5.69848 -3.00507,13.92712 -4.45724,18.97703 z"
       sodipodi:nodetypes="ccccc" /></g></svg>
