<?xml version="1.0" encoding="UTF-8" standalone="no"?>
<!-- Created with Inkscape (http://www.inkscape.org/) -->

<svg
   width="203.151mm"
   height="201.3004mm"
   viewBox="0 0 203.151 201.3004"
   version="1.1"
   id="svg5"
   xml:space="preserve"
   inkscape:version="1.2.2 (b0a8486, 2022-12-01)"
   sodipodi:docname="dreya.svg"
   xmlns:inkscape="http://www.inkscape.org/namespaces/inkscape"
   xmlns:sodipodi="http://sodipodi.sourceforge.net/DTD/sodipodi-0.dtd"
   xmlns="http://www.w3.org/2000/svg"
   xmlns:svg="http://www.w3.org/2000/svg"><sodipodi:namedview
     id="namedview7"
     pagecolor="#505050"
     bordercolor="#eeeeee"
     borderopacity="1"
     inkscape:showpageshadow="0"
     inkscape:pageopacity="0"
     inkscape:pagecheckerboard="0"
     inkscape:deskcolor="#505050"
     inkscape:document-units="mm"
     showgrid="false"
     inkscape:zoom="0.22350635"
     inkscape:cx="1680.0417"
     inkscape:cy="534.66042"
     inkscape:window-width="1680"
     inkscape:window-height="937"
     inkscape:window-x="0"
     inkscape:window-y="25"
     inkscape:window-maximized="1"
     inkscape:current-layer="layer5" /><defs
     id="defs2" /><g
     inkscape:groupmode="layer"
     id="layer4"
     inkscape:label="dreya"
     style="display:inline"
     inkscape:export-filename="./dreya-tshirt2.svg"
     inkscape:export-xdpi="150"
     inkscape:export-ydpi="150"
     transform="translate(-421.31274,-48.745842)"><path
       id="path355"
       style="fill:#000000;fill-opacity:1;stroke:#ffffff;stroke-width:3.4;stroke-linecap:butt;stroke-linejoin:miter;stroke-miterlimit:7;stroke-dasharray:none;stroke-opacity:1;paint-order:stroke fill markers"
       inkscape:label="black base"
       d="m 462.6467,50.446533 c -0.11429,-7.58e-4 -0.22783,0.0048 -0.34107,0.01705 -5.39797,0.58324 -10.00308,28.512277 -11.46493,42.123527 -1.69203,15.75448 -0.63299,47.61244 0.69505,53.5926 -3.53585,5.78358 -7.24551,16.68289 -9.44335,19.95744 -1.29511,1.92956 -3.90936,5.67994 -8.20209,8.62738 1.71356,-0.21523 2.94469,-0.38188 4.45968,-0.47698 -5.61548,2.64191 -10.4584,9.30327 -12.76666,12.82558 3.09012,-1.15761 7.52061,-2.61899 11.09544,-3.07062 -1.32783,0.69072 -2.52871,1.49431 -3.84472,2.05362 1.31824,0.57348 9.79859,2.87934 12.90515,4.6359 7.54569,4.2666 35.32,21.38981 43.20202,30.12219 7.00428,7.75997 9.23412,15.20118 15.30139,19.90008 2.44341,1.89233 5.14714,3.08561 7.5153,3.43286 2.45062,4.54744 11.13007,4.15014 11.13007,4.15014 0,0 8.67997,0.3973 11.13059,-4.15014 2.36815,-0.34725 5.07188,-1.54053 7.5153,-3.43286 6.06726,-4.6989 8.29659,-12.14011 15.30088,-19.90008 7.88201,-8.73238 35.65683,-25.85559 43.20253,-30.12219 3.10655,-1.75656 11.5869,-4.06242 12.90515,-4.6359 -1.31602,-0.55931 -2.51741,-1.3629 -3.84524,-2.05362 3.57483,0.45163 8.00583,1.91301 11.09596,3.07062 -2.30827,-3.52231 -7.15119,-10.18367 -12.76666,-12.82558 1.51499,0.0951 2.74612,0.26175 4.45968,0.47698 -4.29273,-2.94744 -6.9075,-6.69782 -8.2026,-8.62738 -2.19785,-3.27455 -5.90699,-14.17386 -9.44284,-19.95744 1.32804,-5.98016 2.38708,-37.83812 0.69505,-53.5926 -1.46185,-13.61125 -6.06696,-41.540287 -11.46493,-42.123527 -3.62368,-0.39153 -7.79031,6.02074 -12.14397,9.55704 -6.1496,4.995083 -11.45638,8.234526 -18.60713,16.662549 -7.4053,8.728048 -12.28569,18.451341 -16.41657,20.928955 -2.39308,1.435319 -5.86194,3.561513 -13.4152,3.614253 -7.55326,-0.0527 -11.02212,-2.178934 -13.4152,-3.614253 -4.13088,-2.477614 -9.01075,-12.200907 -16.41605,-20.928955 -7.15076,-8.428023 -12.45805,-11.667466 -18.60765,-16.662549 -4.21761,-3.42579 -8.25943,-9.550584 -11.80238,-9.574093 z"
       sodipodi:nodetypes="ssscscccccssscccssscccccscssssscsssss" /><path
       style="display:inline;fill:#fcfcfc;fill-opacity:1;stroke:none;stroke-width:2"
       d="m 455.67089,119.63635 c -2.77097,-13.61127 2.73997,-63.069307 8.15274,-63.652547 3.62379,-0.390474 11.88917,12.236023 16.00776,16.043522 6.14961,5.685114 19.04667,22.954568 16.8133,29.910575 -1.46553,4.5645 -11.07885,6.6053 -16.63811,4.32807 -5.21108,-2.13461 -7.22809,-8.683088 -10.24656,-13.508872 0.94014,6.056051 3.77464,19.792472 -2.87978,29.452452 -6.72412,9.76116 -9.67977,4.94024 -11.20935,-2.5732 z m 134.43452,0 c 2.77097,-13.61127 -2.73997,-63.069307 -8.15274,-63.652547 -3.62379,-0.390474 -11.88917,12.236023 -16.00776,16.043522 -6.14961,5.685114 -19.04667,22.954568 -16.8133,29.910575 1.46553,4.5645 11.07885,6.6053 16.63811,4.32807 5.21108,-2.13461 7.22809,-8.683088 10.24656,-13.508872 -0.94014,6.056051 -3.77464,19.792472 2.87978,29.452452 6.72412,9.76116 9.67977,4.94024 11.20935,-2.5732 z"
       id="path1282"
       inkscape:label="white ear"
       sodipodi:nodetypes="ssssscss" /><path
       style="display:inline;fill:#000000;fill-opacity:1;stroke:none;stroke-width:2"
       d="m 461.21271,71.795572 c -0.0997,-6.233571 1.19292,-11.202795 3.30095,-11.257594 2.04919,-0.05327 6.34359,4.788646 9.28124,9.017141 -10.02534,-9.720787 -9.94979,-5.472345 -12.58219,2.240453 z m 123.35088,0 c 0.0997,-6.233571 -1.19292,-11.202795 -3.30095,-11.257594 -2.04919,-0.05327 -6.34359,4.788646 -9.28124,9.017141 10.02534,-9.720787 9.94979,-5.472345 12.58219,2.240453 z"
       id="path1288"
       inkscape:label="black ear 1"
       sodipodi:nodetypes="cscc" /><path
       style="display:inline;fill:#000000;fill-opacity:1;stroke:none;stroke-width:2"
       d="m 457.52386,115.42575 c 2.31713,8.77623 5.19977,9.08588 7.0534,-3.75269 0.52513,1.44845 0.56971,3.8592 0.83518,5.39006 1.81179,-4.32272 2.15585,-10.69469 2.46758,-15.64398 3.1619,14.13982 -3.83513,23.78609 -7.20562,23.75502 -1.84912,-0.017 -3.02911,-6.3522 -3.15054,-9.74841 z m 130.72858,0 c -2.31713,8.77623 -5.19977,9.08588 -7.0534,-3.75269 -0.52513,1.44845 -0.56971,3.8592 -0.83518,5.39006 -1.81179,-4.32272 -2.15585,-10.69469 -2.46758,-15.64398 -3.1619,14.13982 3.83513,23.78609 7.20562,23.75502 1.84912,-0.017 3.02911,-6.3522 3.15054,-9.74841 z"
       id="path1294"
       inkscape:label="black ear 2"
       sodipodi:nodetypes="ccccsc" /><path
       style="display:inline;fill:#00ffff;fill-opacity:1;stroke:none;stroke-width:2"
       d="m 478.71106,101.06186 c 2.76761,1.58589 10.14516,2.0508 11.57931,-1.388365 1.05539,-2.530893 -9.46633,-17.746101 -11.52698,-25.4178 10.70525,16.219706 15.1781,22.247619 14.15636,26.588285 -0.74786,3.17715 -11.97227,5.53435 -14.20869,0.21788 z m 88.35418,0 c -2.76761,1.58589 -10.14516,2.0508 -11.57931,-1.388365 -1.05539,-2.530893 9.46633,-17.746101 11.52698,-25.4178 -10.70525,16.219706 -15.1781,22.247619 -14.15636,26.588285 0.74786,3.17715 11.97227,5.53435 14.20869,0.21788 z"
       id="path1558"
       inkscape:label="blue ear 1"
       sodipodi:nodetypes="cscsc" /><path
       style="display:inline;fill:#ffffff;fill-opacity:1;stroke:none;stroke-width:2"
       d="m 495.58365,133.81338 c 8.50624,5.06276 22.80923,4.4791 18.75786,15.72224 -3.56986,9.90687 -15.8917,-10.55003 -18.75786,-15.72224 z m 54.609,0 c -8.50624,5.06276 -22.80923,4.4791 -18.75786,15.72224 3.56986,9.90687 15.8917,-10.55003 18.75786,-15.72224 z"
       id="path2997"
       inkscape:label="white eyebrow"
       sodipodi:nodetypes="csc" /><path
       style="display:inline;fill:#00ffff;fill-opacity:1;stroke:none;stroke-width:2"
       d="m 505.4324,145.97633 c 8.56005,7.96895 9.94665,-3.27074 -2.12365,-7.58111 8.93387,2.22514 11.28149,6.60719 10.06838,10.10028 -0.92472,2.66267 -3.73649,2.85732 -7.94473,-2.51917 z m 34.9115,0 c -8.56005,7.96895 -9.94665,-3.27074 2.12365,-7.58111 -8.93387,2.22514 -11.28149,6.60719 -10.06838,10.10028 0.92472,2.66267 3.73649,2.85732 7.94473,-2.51917 z"
       id="path3003"
       inkscape:label="blue eyebrow"
       sodipodi:nodetypes="ccsc" /><path
       style="display:inline;fill:#ffffff;fill-opacity:1;stroke:none;stroke-width:2"
       d="m 479.21987,150.48161 c 3.36335,0.28186 9.30435,0.14756 15.6478,2.85634 9.21833,3.93642 19.44165,13.61083 23.65992,7.38593 -5.72927,13.67832 -12.16881,-0.48613 -30.25108,-6.7843 -10.33818,-3.60086 -20.2807,2.19741 -21.18378,-3.58044 0.93106,0.36874 1.80119,0.88857 2.94124,0.88951 -0.4801,-0.45314 -0.72903,-1.23138 -0.67664,-1.97944 4.55454,2.50835 5.32474,1.02982 5.21998,0.0312 1.86817,1.24321 2.77842,1.02496 4.64256,1.18119 z m 87.33656,0 c -3.36335,0.28186 -9.30435,0.14756 -15.6478,2.85634 -9.21833,3.93642 -19.44165,13.61083 -23.65992,7.38593 5.72927,13.67832 12.16881,-0.48613 30.25108,-6.7843 10.33818,-3.60086 20.2807,2.19741 21.18378,-3.58044 -0.93106,0.36874 -1.80119,0.88857 -2.94124,0.88951 0.4801,-0.45314 0.72903,-1.23138 0.67664,-1.97944 -4.55454,2.50835 -5.32474,1.02982 -5.21998,0.0312 -1.86817,1.24321 -2.77842,1.02496 -4.64256,1.18119 z"
       id="path3009"
       inkscape:label="white eyebrow"
       sodipodi:nodetypes="sscsccccs" /><path
       style="display:inline;fill:#00ffff;fill-opacity:1;stroke:none;stroke-width:2"
       d="m 508.71532,166.75021 c -17.59566,4.36312 -27.61855,-6.87657 -33.60738,-12.5324 14.90771,-2.24178 22.53121,7.46813 33.60738,12.5324 z m 28.34566,0 c 17.59566,4.36312 27.61855,-6.87657 33.60738,-12.5324 -14.90771,-2.24178 -22.53121,7.46813 -33.60738,12.5324 z"
       id="path3015"
       inkscape:label="blue eye"
       sodipodi:nodetypes="ccc" /><path
       style="display:inline;fill:#00ffff;fill-opacity:1;stroke:none;stroke-width:2"
       d="m 512.29252,173.37183 c -4.10272,2.3767 -8.13209,5.80769 -11.27763,8.69313 0.20436,-0.54369 0.73183,-1.60523 1.98856,-2.93688 -0.75682,0.318 -9.62613,6.10707 -17.56802,6.3657 5.0955,-1.16205 7.55145,-3.57734 10.57875,-4.94802 -7.19156,1.86456 -22.30953,2.03403 -23.57011,0.84354 13.56689,-0.26614 18.5555,-3.05636 24.54964,-4.47075 -5.08216,-0.39172 -10.4285,-5.73055 -12.44562,-6.59084 3.19525,0.4585 7.95777,3.47731 14.34118,4.02509 6.87145,0.58967 12.33526,-0.86418 13.40325,-0.98097 z m 21.19126,0 c 4.10272,2.3767 8.13209,5.80769 11.27763,8.69313 -0.20436,-0.54369 -0.73183,-1.60523 -1.98856,-2.93688 0.75682,0.318 9.62613,6.10707 17.56802,6.3657 -5.0955,-1.16205 -7.55145,-3.57734 -10.57875,-4.94802 7.19156,1.86456 22.30953,2.03403 23.57011,0.84354 -13.56689,-0.26614 -18.5555,-3.05636 -24.54964,-4.47075 5.08216,-0.39172 10.4285,-5.73055 12.44562,-6.59084 -3.19525,0.4585 -7.95777,3.47731 -14.34118,4.02509 -6.87145,0.58967 -12.33526,-0.86418 -13.40325,-0.98097 z"
       id="path3021"
       inkscape:label="blue cheek 1"
       sodipodi:nodetypes="ccccccccsc" /><path
       style="display:inline;fill:#ffffff;fill-opacity:1;stroke:none;stroke-width:2"
       d="m 509.83005,221.22569 c -0.0523,1.09844 -2.33471,13.29507 6.81434,10.2542 -0.72889,1.52137 1.93485,6.05321 5.5558,6.27465 1.37448,4.86068 -6.43045,5.06741 -11.93549,4.34167 -9.08426,-1.1976 -19.63145,-25.50114 -25.97955,-32.6361 1.06344,2.4022 2.21534,4.54442 3.84522,7.41809 -6.46748,-4.86143 -28.96811,-23.36803 -48.75057,-31.92656 7.95522,-5.71324 31.28214,2.95332 39.30949,1.10113 -0.71989,0.6196 -2.41428,1.38257 -4.94939,2.2074 3.25615,1.23593 15.75127,2.09147 21.55098,-1.42189 -1.49243,1.85523 -3.44315,3.56903 -4.55406,4.45012 6.66643,-2.28485 18.40988,-9.16494 25.30022,-14.2533 -1.82108,16.15216 -5.90797,37.90458 -6.20699,44.19059 z m 26.1162,0 c 0.0523,1.09844 2.33471,13.29507 -6.81434,10.2542 0.72889,1.52137 -1.93485,6.05321 -5.5558,6.27465 -1.37448,4.86068 6.43045,5.06741 11.93549,4.34167 9.08426,-1.1976 19.63145,-25.50114 25.97955,-32.6361 -1.06344,2.4022 -2.21534,4.54442 -3.84522,7.41809 6.46748,-4.86143 28.96811,-23.36803 48.75057,-31.92656 -7.95522,-5.71324 -31.28214,2.95332 -39.30949,1.10113 0.71989,0.6196 2.41428,1.38257 4.94939,2.2074 -3.25615,1.23593 -15.75127,2.09147 -21.55098,-1.42189 1.49243,1.85523 3.44315,3.56903 4.55406,4.45012 -6.66643,-2.28485 -18.40988,-9.16494 -25.30022,-14.2533 1.82108,16.15216 5.90797,37.90458 6.20699,44.19059 z"
       id="path3027"
       inkscape:label="white cheek"
       sodipodi:nodetypes="sccsccccccccs" /><path
       style="display:inline;fill:#00ffff;fill-opacity:1;stroke:none;stroke-width:2"
       d="m 506.97967,213.52043 c -0.6599,-11.79814 0.61445,-15.43892 -1.62415,-17.58351 -3.04007,-2.91242 -8.62635,-0.85818 -16.07436,-0.0883 6.66643,-2.28485 16.61927,-4.72402 21.76771,-9.57485 0,0 -2.93918,15.62729 -4.0692,27.24666 z m 31.81696,0 c 0.6599,-11.79814 -0.61445,-15.43892 1.62415,-17.58351 3.04007,-2.91242 8.62635,-0.85818 16.07436,-0.0883 -6.66643,-2.28485 -16.61927,-4.72402 -21.76771,-9.57485 0,0 2.93918,15.62729 4.0692,27.24666 z"
       id="path3033"
       inkscape:label="blue cheek 2"
       sodipodi:nodetypes="csccc" /><path
       style="display:inline;fill:#ffffff;fill-opacity:1;stroke:none;stroke-width:2"
       d="m 521.8083,218.15717 c -5.56131,-0.43035 -8.4416,-0.49906 -10.63237,1.11335 0.42718,-6.62961 1.438,-11.21042 1.99427,-15.09374 0.29955,11.57821 4.86773,13.03898 8.6381,13.98039 z m 2.1597,0 c 5.56131,-0.43035 8.4416,-0.49906 10.63237,1.11335 -0.42718,-6.62961 -1.438,-11.21042 -1.99427,-15.09374 -0.29955,11.57821 -4.86773,13.03898 -8.6381,13.98039 z"
       id="path3039"
       inkscape:label="white nose"
       sodipodi:nodetypes="cccc" /><path
       id="path3045"
       style="display:inline;fill:#ffffff;fill-opacity:1;stroke:none;stroke-width:2"
       inkscape:label="white lip"
       d="m 522.89573,242.16816 c -2.59741,0.92038 -6.41915,1.25446 -8.92038,1.43144 1.3478,2.44565 5.62642,2.90318 8.92038,2.90318 3.29396,0 7.55759,-0.45753 8.9054,-2.90318 -2.50124,-0.17698 -6.30799,-0.51106 -8.9054,-1.43144 z" /><path
       style="display:inline;fill:#ffffff;fill-opacity:1;stroke:none;stroke-width:2"
       d="m 442.01124,181.72071 c -4.64064,-0.25692 -8.23652,0.53039 -10.87776,1.43055 1.49825,-3.47575 7.91802,-8.71296 13.80595,-11.54173 -3.29863,2.83329 -7.3928,6.30129 -9.55827,9.13871 1.60517,-0.0776 3.65868,-0.59095 6.63008,0.97247 z m 161.75382,0 c 4.64064,-0.25692 8.23652,0.53039 10.87776,1.43055 -1.49825,-3.47575 -7.91802,-8.71296 -13.80595,-11.54173 3.29863,2.83329 7.3928,6.30129 9.55827,9.13871 -1.60517,-0.0776 -3.65868,-0.59095 -6.63008,0.97247 z"
       id="path3051"
       inkscape:label="white fluff 2"
       sodipodi:nodetypes="ccccc" /><path
       id="path3117"
       style="display:inline;opacity:1;fill:#00ffff;fill-opacity:1;stroke:none;stroke-width:2"
       inkscape:label="head tech"
       d="m 532.03419,96.395667 c -6.16386,0.01478 -10.68419,3.279704 -16.74885,10.225733 -1.98392,2.27225 -6.36969,8.58463 -11.01018,8.8408 -4.90418,-2.96098 -8.18419,2.83334 -6.74274,5.34903 3.12809,5.45929 9.6357,0.91929 8.52816,-2.61431 5.43224,-4.00826 15.01511,-20.668556 25.5431,-20.250588 -18.13793,9.377818 -10.06084,26.031628 -10.06084,26.031628 -3.37537,3.42812 -1.28231,8.21455 3.38739,6.71019 4.66971,-1.50437 1.75089,-7.49786 -1.09709,-7.2869 -2.26783,-4.00825 -7.95831,-19.11455 10.72906,-24.344247 -8.64939,12.182987 6.16138,19.696987 6.16138,19.696987 -0.94932,3.32263 6.87827,6.8828 8.38657,1.38803 1.5083,-5.49476 -6.40252,-7.18153 -7.61555,-3.48971 -16.32932,-7.00119 -4.08983,-19.87005 -4.08983,-19.87005 -2.05357,-0.496088 -3.6447,-0.390731 -5.37058,-0.386593 z M 501.6655,116.05597 c 1.68872,1.7e-4 3.05763,1.32743 3.0577,2.96467 -6e-5,1.63724 -1.36897,2.96451 -3.0577,2.96468 -1.68893,1e-4 -3.05815,-1.32724 -3.05821,-2.96468 7e-5,-1.63743 1.36929,-2.96477 3.05821,-2.96467 z m 43.44645,0 c 1.5856,2.3e-4 2.87093,1.27722 2.87114,2.85253 8e-5,1.57551 -1.28533,2.85283 -2.87114,2.85306 -1.58602,5e-5 -2.87174,-1.27734 -2.87166,-2.85306 2.1e-4,-1.57551 1.28585,-2.85258 2.87166,-2.85253 z m -21.51807,8.72659 c 1.44147,1.8e-4 2.60997,1.17701 2.61018,2.62878 8e-5,1.45197 -1.16851,2.62912 -2.61018,2.6293 -1.44187,1e-4 -2.61077,-1.17713 -2.61069,-2.6293 2.1e-4,-1.45197 1.16902,-2.62888 2.61069,-2.62878 z"
       sodipodi:nodetypes="sscscccscccsccsscscscccccscscs" /><path
       style="display:inline;fill:#ffffff;fill-opacity:1;stroke:none;stroke-width:2"
       d="m 450.17841,167.43749 c -3.52185,2.98757 -8.3484,3.96135 -10.95235,4.30211 2.02035,-1.57381 4.33789,-5.24471 5.48961,-7.29033 -0.35248,1.86368 -1.23945,4.06371 -2.58448,5.52129 1.60517,-0.0776 4.40454,-0.88929 8.04722,-2.53307 z m 146.80754,0.8097 c 3.52185,2.98757 6.96034,3.15165 9.56429,3.49241 -2.02035,-1.57381 -4.33789,-5.24471 -5.48961,-7.29033 0.35248,1.86368 1.23945,4.06371 2.58448,5.52129 -1.60517,-0.0776 -3.01648,-0.0796 -6.65916,-1.72337 z"
       id="path3057"
       inkscape:label="white fluff 1"
       sodipodi:nodetypes="cccccccccc" /><path
       id="path3295"
       style="display:inline;opacity:1;fill:#00ffff;fill-opacity:1;stroke:none;stroke-width:2"
       d="m 594.57766,144.15244 c -0.13508,0.41699 -0.20449,1.29902 -0.39997,1.90686 7.68263,12.86887 -5.28329,29.44731 -20.29954,24.36389 -0.56336,-2.00901 -1.85949,-2.67943 -3.83129,-2.80293 -3.43592,-0.21519 -5.29937,4.0882 -1.97921,5.77432 2.31017,1.17322 5.31441,-0.53381 5.31441,-0.53381 0,0 18.06844,4.38506 24.19904,-15.91531 0.99755,10.1065 -3.74271,23.00479 -15.52464,28.94242 -13.33118,6.71838 -22.62611,13.82673 -25.45012,15.96285 -1.53988,-0.6374 -4.03192,0.32346 -4.6421,1.50585 -1.5737,3.04948 1.13017,6.98318 4.88446,4.3341 1.95561,-1.37991 1.45986,-4.09484 1.45986,-4.09484 3.1081,-4.25319 10.52955,-9.38064 16.92558,-12.7832 9.30522,-4.95017 16.58348,-5.98171 22.49268,-22.21001 2.72978,-7.49672 1.3042,-16.70019 -3.14916,-24.45019 z m -24.56749,24.58506 a 2.4537687,2.0857034 0 0 1 2.45411,2.08566 2.4537687,2.0857034 0 0 1 -2.45411,2.08567 2.4537687,2.0857034 0 0 1 -2.4536,-2.08567 2.4537687,2.0857034 0 0 1 2.4536,-2.08566 z m -15.0089,34.18913 a 2.2492881,2.1674955 0 0 1 2.24947,2.16731 2.2492881,2.1674955 0 0 1 -2.24947,2.16783 2.2492881,2.1674955 0 0 1 -2.24896,-2.16783 2.2492881,2.1674955 0 0 1 2.24896,-2.16731 z"
       inkscape:label="head tech 2" /></g></svg>
