"Title","Class","Level","Type","Scale","Image","Quantity","Spark","Description","Keep","Trigger","TriggerAction","Print","Public","id"
"Boundless Quiver","Dreya","P","Power","0","https://photos.smugmug.com/Interstellar-Fight-Club-IFC/Dreya/i-bKmfTc3/0/e75cdf45/O/download%20%2816%29.png","1","---",,"FALSE","Always","Every time you play an ^Arrow^Arrow card and deal ^d^ Damage to an Enemy, you may <br/>^waitOne^Wait 1 to ^Draw^Draw 1","NO","YES","dre1_1"
"^Arrow^Boxing Glove Arrow","Dreya","0","Card","20","https://photos.smugmug.com/Interstellar-Fight-Club-IFC/Dreya/i-hmGkJHh/0/44231842/O/IFC%20%28Block%29.png","1","1","(^Line^Line 3): ^d3^ and <br/>^Push^**Push 1-2**<br/><br/>On ^Hit^,^rushOne^Rush 1","FALSE",,,"NO","YES","dre6_1"
"^Arrow^Boxing Glove Arrow","Dreya","0","Card","20","https://photos.smugmug.com/Interstellar-Fight-Club-IFC/Dreya/i-hmGkJHh/0/44231842/O/IFC%20%28Block%29.png","1","1","(^Line^Line 5): ^d3^ and <br/>^Push^Push 0-X,<br/><br/>Where X is equal to unused Range on this attack","FALSE",,,"NO","YES","dre6_2"
"^Arrow^Cruel Arrow","Dreya","1","Card","0","https://photos.smugmug.com/Interstellar-Fight-Club-IFC/Dreya/i-KWFpTb5/0/9f95e2ba/O/dreya_cruelarrow.png","1","1","(^Range^2/4): ^d5^ <br/> When played, this abilitiy must Target the Enemy in Range with the least HP","FALSE",,,"NO","YES","dre25_1"
"^Arrow^Cruel Arrow","Dreya","1","Card","0","https://photos.smugmug.com/Interstellar-Fight-Club-IFC/Dreya/i-KWFpTb5/0/9f95e2ba/O/dreya_cruelarrow.png","1","1","(^Range^3/4): ^d7^ <br/> This abilitiy can only Target an Enemy if it would eliminate them","FALSE",,,"NO","YES","dre25_2"
"Daybreak","Dreya","1","Card","20","https://cdn-icons-png.flaticon.com/512/171/171145.png","1","1","^Scry^Scry (3+^spX^) <br/>^Move^**Move X** equal to the amount you Discarded in this way","FALSE",,,"NO","YES","dre7_1"
"Wailing Winds","Dreya","2","Card","0","https://imagedelivery.net/yn0FeX4Pftgdx0G5XU_y6A/dreya_wailingwinds/public","1","1","<img src=""https://imagedelivery.net/yn0FeX4Pftgdx0G5XU_y6A/dreya_wailingwindsAOE/public""> any Allies within Range may choose to be effected by the ^Scatter^Scatter 2 <br/><br/>^spOne^= Do this again","FALSE",,,"NO","YES","dre29_1"
"Jagged Tip","Dreya","1","Card","0","https://img.freepik.com/premium-vector/spear-logo-icon-vector-image_665655-6288.jpg?w=2000","1","0","The ^Next^**Next** card you play has ^Pierce^**Pierce** on all ^d^ **Damage**","FALSE",,,"NO","YES","dre12_1"
"Daybreak","Dreya","0","Card","20","https://cdn-icons-png.flaticon.com/512/171/171145.png","1","1","^rushX^Rush until your ^Initiative^Initiative is equal to 0 or the previous Enemy wave","FALSE",,,"NO","YES","dre7_1"
"Right On Track","Dreya","0","Card","0","https://imagedelivery.net/yn0FeX4Pftgdx0G5XU_y6A/dreya_rightontrack/public","1","1","^Move^Move 0-2<br/><br/>If you are now adjacent to an Enemy, ^Reclaim^Reclaim this card","FALSE",,,"NO","YES","dre28_1"
"Hunter's Mark","Dreya","0","Card","15","https://photos.smugmug.com/Interstellar-Fight-Club-IFC/Dreya/i-sKWJJn6/0/3c1ad4a5/O/download%20%2811%29.png","1","1","^Move^Move 0-1<br/>(^Range^3/4): Apply 1 ^Wound^ Wound","FALSE","Reaction","If you dealt ^d^ Damage to at least 1 Enemy with ^Wound^, you may ^rushOne^Rush 1 and ^Reclaim^Reclaim this card to your hand","NO","YES","dre11_1"