"Title","Class","Level","Type","Scale","Image","Quantity","Spark","Description","Keep","Trigger","TriggerAction","Print","Public","id"
"Hit The Gas","Scourge","0","Power","20","https://encrypted-tbn0.gstatic.com/images?q=tbn:ANd9GcTb4rTy_ETXiBBNrjcJYSFq4wSO8cRGkiAtSA8gkBV9n569qNHZ0V8wJgxd6eXtCF2EaMk&usqp=CAU","1","3","^Draw^Draw 3 <br/><br/> ^rushX^Rush 3 <br/><br/> Lose X HP equal to <br/>^Spark^Spark drawn in this way","FALSE",,,"NO","YES","sco15_1"
"Hit The Gas","Scourge","0","Power","20","https://encrypted-tbn0.gstatic.com/images?q=tbn:ANd9GcTb4rTy_ETXiBBNrjcJYSFq4wSO8cRGkiAtSA8gkBV9n569qNHZ0V8wJgxd6eXtCF2EaMk&usqp=CAU","1","3","^rushX^Rush 3 <br/>^Draw^Draw until your Hand gains 3^Spark^Spark <br/><br/>Lose 1 HP for each Card in your hand above 5 Cards","FALSE",,,"NO","YES","sco15_3"
"Hit The Gas","Scourge","0","Power","20","https://encrypted-tbn0.gstatic.com/images?q=tbn:ANd9GcTb4rTy_ETXiBBNrjcJYSFq4wSO8cRGkiAtSA8gkBV9n569qNHZ0V8wJgxd6eXtCF2EaMk&usqp=CAU","1","3","^Draw^Draw 2<br/>^rushTwo^Rush 2<br/><br/>You may Lose 2 HP to do this once more","FALSE",,,"NO","YES","sco15_2"
"Hit The Gas","Scourge","0","Power","20","https://encrypted-tbn0.gstatic.com/images?q=tbn:ANd9GcTb4rTy_ETXiBBNrjcJYSFq4wSO8cRGkiAtSA8gkBV9n569qNHZ0V8wJgxd6eXtCF2EaMk&usqp=CAU","2","3","^rushTwo^Rush 2<br/>^Move^Move 0-2 OR ^Draw^Draw 2","FALSE","Reaction","If you just lost HP, <br/>^Reclaim^Reclaim this Card","NO","YES","sco15_3"
"Charbecue","Scourge","1","Card","0","https://thumbs.dreamstime.com/b/silhouette-grill-icon-%C3%A2%E2%82%AC-vector-stock-silhouette-grill-icon-stock-130152451.jpg","1","2","Target all spaces along 3 different <br/>(^Line^**3**) Lines of your choice <br/><br/>^d1^ to all **Enemies** targeted <br/>^h1^ for each targeted **Enemy**","FALSE",,,"NO","YES","sco4_1"
"Charbecue","Scourge","1","Card","0","https://thumbs.dreamstime.com/b/silhouette-grill-icon-%C3%A2%E2%82%AC-vector-stock-silhouette-grill-icon-stock-130152451.jpg","1","2","<img src=""https://imagedelivery.net/yn0FeX4Pftgdx0G5XU_y6A/scourge_charbecueAOE_2/public""> <br/>^hX^Heal (1+^spX^)<br/>for each targeted Enemy","FALSE",,,"NO","YES","sco4_2"
"Heat Metal","Scourge","0","Card","20","https://thumbs.dreamstime.com/b/molten-metal-poured-ladle-icon-simple-style-isolated-white-background-vector-illustration-91215881.jpg","1","1","^b3^ and ^Flex^Flex","FALSE","Reaction","If you lost HP from attack damage, ^Reclaim^Reclaim this card","NO","YES","sco7_1"
"Heat Metal","Scourge","0","Card","20","https://thumbs.dreamstime.com/b/molten-metal-poured-ladle-icon-simple-style-isolated-white-background-vector-illustration-91215881.jpg","1","1","^bX^ equal to <br/>6 Minus your current HP","FALSE",,,"NO","YES","sco7_2"
"Predator","Scourge","1","Card","0","https://encrypted-tbn0.gstatic.com/images?q=tbn:ANd9GcRPDZDCZSMhnkr4kKtPzhH8uT2MR4fWAttTvqJwTANWeeeapMuRdMwJ93s5beRlRKiEEOc&usqp=CAU","1","1","Find the Enemy with the lowest HP. ^Move^Move 2 along the shortest path towards them","FALSE","Reaction","If an Enemy within (^Range^4) has just lost **HP**,^Jump^Jump to the closest unoccupied space that is adjacent to them","NO","YES","sco_1"
"Fire Within","Scourge","1","Card","0",,"1","1","^Discard^Discard any number of Cards from your Hand and ^hX^ equal to the ^Spark^Spark of Cards Discarded<br/><br/>Afterwards, if you have more ^Spark^Spark than HP, Double your HP","FALSE",,,"NO","YES","sco30_1"
"Simmer","Scourge","0","Card","0","https://cdn-icons-png.flaticon.com/512/1689/1689090.png","1","1","^Draw^Draw 1, then ^Discard^Discard 1<br/><br/>Either ^Heal^Heal X OR ^Move^Move X<br/> equal to the ^Spark^ of the card you Discarded<br/><br/>^spOne^ = Do this again","FALSE",,,"NO","YES","sco11_1"
"Thermal Charge","Scourge","2","Card","0","https://thumbs.dreamstime.com/b/black-silhouette-hand-grenade-army-explosive-weapon-icon-military-isolated-object-vector-illustration-virus-covid-178141871.jpg","1","1","**Lob** (^Lob^**4**) a **Trap** with a token to an unoccupied space. <br/>When any **Player** or **Ally** deals any Dmg to it, it will deal **Trap Damage** to all adjacent units and **Destroy** any adjacent **Obstacles**","FALSE",,,"NO","YES","sco28_1"
"Thermal Charge","Scourge","2","Card","0","https://thumbs.dreamstime.com/b/black-silhouette-hand-grenade-army-explosive-weapon-icon-military-isolated-object-vector-illustration-virus-covid-178141871.jpg","1","1","^Draw^Draw 1<br/>^Scatter^Jump X equal to the^Spark^Spark of the Card Drawn<br/><br/>^dX^ to all adjacent Enemies equal to the distance you Jumped<br/>If you Target 0 Enemies, you must deal it to yourself","FALSE",,,"NO","YES","sco28_2"